Data Carpentry Workshop Remix Jan 15, 2020
…
You can see some information about the data we have just loaded. The name of each column is shown along with the type of data in that column. The data are stored in a format we call a data frame.

You will see the message Parsed with column specification, followed by each column name and its data type. When you execute read_csv on a data file, it looks through the first 1000 rows of each column and guesses the data type for each column as it reads it into R. For example, in this dataset, read_csv reads columns as col_double (a numeric data type), and as col_character. You have the option to specify the data type for a column manually by using the col_types argument in read_csv.

For more details on this dataset see the Tidy Tuesday site.

This statement doesnt produce any output because assignments dont display anything. If we want to check that our data has been loaded, we can see the contents of the data frame by typing its name:rainfall.

rainfall

## # A tibble: 179,273 x 11
##    station_code city_name  year month day   rainfall period quality   lat  long
##    <chr>        <chr>     <dbl> <chr> <chr>    <dbl>  <dbl> <chr>   <dbl> <dbl>
##  1 009151       Perth      1967 01    01          NA     NA <NA>    -32.0  116.
##  2 009151       Perth      1967 01    02          NA     NA <NA>    -32.0  116.
##  3 009151       Perth      1967 01    03          NA     NA <NA>    -32.0  116.
##  4 009151       Perth      1967 01    04          NA     NA <NA>    -32.0  116.
##  5 009151       Perth      1967 01    05          NA     NA <NA>    -32.0  116.
##  6 009151       Perth      1967 01    06          NA     NA <NA>    -32.0  116.
##  7 009151       Perth      1967 01    07          NA     NA <NA>    -32.0  116.
##  8 009151       Perth      1967 01    08          NA     NA <NA>    -32.0  116.
##  9 009151       Perth      1967 01    09          NA     NA <NA>    -32.0  116.
## 10 009151       Perth      1967 01    10          NA     NA <NA>    -32.0  116.
## #  with 179,263 more rows, and 1 more variable: station_name <chr>
…
